1;Cosmin Dascalu;sef;activ
2;Maricica Lucescu;membru;activ
3;Pop Dan;membru;activ
4;Carina Ciubanca;membru;activ
5;Elena Brusturean;membru;activ
6;Larisa Bothaza;membru;inactiv
7;Luca Mateescu;membru;activ
8;Pop Mari;membru;activ
4;Carina Ciubanca;membru;activ
1;Cosmin Dascalu;sef;inactiv
3;Pop Dan;membru;inactiv
5;Elena Brusturean;membru;inactiv
5;Elena Brusturean;membru;activ
